uvm_tb/mux2_verification/sim/reference_sim.log
Command: /home/cesar.otamendi.v/Isolated/Academy2026/project/uvm_tb/mux2_verification/sim/./simv -l sim.log
Chronologic VCS simulator copyright 1991-2023
Contains Synopsys proprietary information.
Compiler version V-2023.12-SP2-8_Full64; Runtime version V-2023.12-SP2-8_Full64;  Jul 18 15:28 2026
*Verdi* Loading libsscore_vcs202312.so
FSDB Dumper for VCS, Release Verdi_V-2023.12-SP2-8, Linux x86_64/64bit, 06/05/2025
(C) 1996 - 2025 by Synopsys, Inc.
*Verdi* : Create FSDB file 'mux2_standalone.fsdb'
*Verdi* : Begin traversing the scope (tb_mux2), layer (0).
*Verdi* : End of traversing.
================================================================
  TB standalone: mux2 (2:1, WIDTH=8)
================================================================

--- ESC 1: Selects individuales ---
[PASS] select=0 -> dout=din1=AA                      | esperado=0xaa  obtenido=0xaa
[PASS] select=1 -> dout=din2=BB                      | esperado=0xbb  obtenido=0xbb

--- ESC 2: Cambio dinamico de select ---
[PASS] Cambio dinamico [0] -> 11                     | esperado=0x11  obtenido=0x11
[PASS] Cambio dinamico [1] -> 22                     | esperado=0x22  obtenido=0x22
[PASS] Cambio dinamico [0] -> 11 (vuelta)            | esperado=0x11  obtenido=0x11

--- ESC 3: Valores extremos ---
[PASS] Todos zero: dout=0                            | esperado=0x00  obtenido=0x00
[PASS] Todos max: dout=FF                            | esperado=0xff  obtenido=0xff

--- ESC 4: Independencia entre entradas ---
[PASS] Solo din1 activo                              | esperado=0x55  obtenido=0x55
[PASS] Ruido en din2 no afecta cuando sel=0          | esperado=0x55  obtenido=0x55
[PASS] Cambio a sel=1: refleja din2=AA               | esperado=0xaa  obtenido=0xaa
[PASS] Ruido en din1 no afecta cuando sel=1          | esperado=0xaa  obtenido=0xaa

--- ESC 5: Barrido con patrones alternados ---
[PASS] Barrido select=0 -> 5A                        | esperado=0x5a  obtenido=0x5a
[PASS] Barrido select=1 -> A5                        | esperado=0xa5  obtenido=0xa5
[PASS] Barrido nuevo patron select=0 -> 3C           | esperado=0x3c  obtenido=0x3c
[PASS] Barrido nuevo patron select=1 -> C3           | esperado=0xc3  obtenido=0xc3

--- ESC 6: Toggle rapido de select ---
[PASS] Ultimo del toggle (i=9 -> sel=1)              | esperado=0x02  obtenido=0x02

================================================================
  Reporte final:
    Checks totales : 16
    PASS           : 16
    FAIL           : 0
  >>> ALL TESTS PASSED <<<
================================================================
$finish called from file "tb_mux2.sv", line 150.
$finish at simulation time                30000
           V C S   S i m u l a t i o n   R e p o r t 
Time: 30000 ps
CPU Time:      0.250 seconds;       Data structure size:   0.0Mb
Sat Jul 18 15:28:39 2026
