uvm_tb/top_verification/sim/reference_sim.log
Command: /home/cesar.otamendi.v/Isolated/Academy2026/project/uvm_tb/top_verification/sim/./simv -l sim.log
Chronologic VCS simulator copyright 1991-2023
Contains Synopsys proprietary information.
Compiler version V-2023.12-SP2-8_Full64; Runtime version V-2023.12-SP2-8_Full64;  Jul 18 15:28 2026
*Verdi* Loading libsscore_vcs202312.so
FSDB Dumper for VCS, Release Verdi_V-2023.12-SP2-8, Linux x86_64/64bit, 06/05/2025
(C) 1996 - 2025 by Synopsys, Inc.
*Verdi* : Create FSDB file 'top_standalone.fsdb'
*Verdi* : Begin traversing the scope (tb_top), layer (0).
*Verdi* : End of traversing.
================================================================
  TB standalone: top (CPU multiciclo)
================================================================

--- ESC 1: Reset behavior ---
[PASS] Reset: cpu_rdy=0                                        | exp=0  got=0  @ 3000
[PASS] Reset: dout=0                                           | exp=0x0000  got=0x0000  @ 3000
[PASS] Reset: zero=0                                           | exp=0  got=0  @ 3000
[PASS] Reset: error=0                                          | exp=0  got=0  @ 3000

--- ESC 2: ADD ---
[PASS] ADD 5+3: cpu_rdy=1                                      | exp=1  got=1  @ 56000
[PASS] ADD 5+3: dout=0x0008                                    | exp=0x0008  got=0x0008  @ 56000
[PASS] ADD 5+3: zero=0                                         | exp=0  got=0  @ 56000
[PASS] ADD 5+3: error=0                                        | exp=0  got=0  @ 56000

--- ESC 3: SUB ---
[PASS] SUB 16-1: cpu_rdy=1                                     | exp=1  got=1  @ 106000
[PASS] SUB 16-1: dout=0x000F                                   | exp=0x000f  got=0x000f  @ 106000
[PASS] SUB 16-1: zero=0                                        | exp=0  got=0  @ 106000

--- ESC 4: MUL ---
[PASS] MUL 16*16: dout=0x0100                                  | exp=0x0100  got=0x0100  @ 156000
[PASS] MUL 0xFF*0xFF: dout=0xFE01                              | exp=0xfe01  got=0xfe01  @ 206000

--- ESC 5: DIV normal ---
[PASS] DIV 32/4: dout=0x0008                                   | exp=0x0008  got=0x0008  @ 256000
[PASS] DIV 32/4: error=0                                       | exp=0  got=0  @ 256000

--- ESC 6: DIV por cero ---
[PASS] DIV /0: dout=0xFFFF (-1)                                | exp=0xffff  got=0xffff  @ 306000
[PASS] DIV /0: error=1                                         | exp=1  got=1  @ 306000
[PASS] DIV /0: cpu_rdy=1                                       | exp=1  got=1  @ 306000

--- ESC 7: NOP ---
[PASS] NOP: dout=0                                             | exp=0x0000  got=0x0000  @ 356000
[PASS] NOP: zero=1                                             | exp=1  got=1  @ 356000
[PASS] NOP: error=0                                            | exp=0  got=0  @ 356000
[PASS] NOP: cpu_rdy=1                                          | exp=1  got=1  @ 356000

--- ESC 8: STORE then LOAD ---
[PASS] STORE: cpu_rdy=1                                        | exp=1  got=1  @ 406000
[PASS] LOAD: cpu_rdy=1                                         | exp=1  got=1  @ 436000
[PASS] LOAD from addr 5: dout=0x00CC                           | exp=0x00cc  got=0x00cc  @ 436000

--- ESC 9: Feedback loop ---
[PASS] Instr 1 ADD 5+3: dout=0x0008                            | exp=0x0008  got=0x0008  @ 486000
[PASS] Feedback dout_high+dout_low: dout=0x0008                | exp=0x0008  got=0x0008  @ 516000

--- ESC 10: p_error via feedback ---
[PASS] Instr 1 DIV/0: error=1                                  | exp=1  got=1  @ 566000
[PASS] Instr 2 ADD w/ feedback+p_error: error=1                | exp=1  got=1  @ 596000
[PASS] Instr 2: dout=0xFFFF (-1)                               | exp=0xffff  got=0xffff  @ 596000

================================================================
  Reporte final:
    Checks totales : 30
    PASS           : 30
    FAIL           : 0
  >>> ALL TESTS PASSED <<<
================================================================
$finish called from file "tb_top.sv", line 239.
$finish at simulation time               616000
           V C S   S i m u l a t i o n   R e p o r t 
Time: 616000 ps
CPU Time:      0.250 seconds;       Data structure size:   0.0Mb
Sat Jul 18 15:28:49 2026
